This is data included in my package — bns2_pkg_data • chcRne
…
    An object of class tbl_df (inherits from tbl, data.frame) with 50 rows and 28 columns.

    Source

    Data created in the project for function examples

    Author

    CHC

    Examples

bns2_pkg_data
#> # A tibble: 50 × 28
#>    q14_1 q14_3 q14_4 q14_5 q14_6 q14_7 q14_8 q14_9 q14_10 q14_11 q14_12 q14_13
#>    <chr> <chr> <chr> <chr> <chr> <chr> <chr> <chr> <chr>  <chr>  <chr>  <chr> 
#>  1 Yes   No    Yes   Yes   No    No    No    No    Yes    No     No     No    
#>  2 No    No    Yes   No    No    No    No    No    Yes    No     No     No    
#>  3 Yes   No    Yes   No    No    No    No    No    Yes    No     No     No    
#>  4 Yes   No    Yes   No    No    No    No    Yes   Yes    No     No     No    
#>  5 No    No    Yes   Yes   No    No    No    No    Yes    Yes    No     No    
#>  6 No    No    Yes   No    No    No    No    No    Yes    Yes    No     No    
#>  7 NA    NA    NA    NA    NA    NA    NA    NA    NA     NA     NA     NA    
#>  8 No    No    Yes   No    No    No    No    Yes   Yes    Yes    No     NA    
#>  9 No    No    Yes   No    No    No    No    No    Yes    No     No     No    
#> 10 No    No    Yes   No    No    No    No    Yes   Yes    No     No     No    
#> # ℹ 40 more rows
#> # ℹ 16 more variables: q14_14 <chr>, q14_15 <chr>, q14_16 <chr>, q14_17 <chr>,
#> #   q14_18 <chr>, q14_19 <chr>, q14_20 <dbl>, q14_21 <dbl>, q14_22 <dbl>,
#> #   q14_23 <dbl>, q14_24 <dbl>, q14_25 <dbl>, q14_26 <dbl>, q13 <chr>,
#> #   q14_30 <dbl>, q13.na <fct>
…
